DynMap_RTL/LevelMatch/LevelMatch.runs/impl_1/iladata.vcd
$date
        2023-Dec-14 17:40:49
$end
$version
        Vivado v2021.2 (64-bit)
$end
$timescale
        1ps
$end
$scope module dut $end
$var reg 5 " AllocatedTiles_Len [4:0] $end
$var reg 2 ' MaxLevel [1:0] $end
$var reg 2 ) DynLevel [1:0] $end
$var reg 4 + NodeTile [3:0] $end
$var reg 4 / \RecList[0] [3:0] $end
$var reg 4 3 \RecList[12] [3:0] $end
$var reg 4 7 \RecList[14] [3:0] $end
$var reg 4 ; \RecList[11] [3:0] $end
$var reg 4 ? \RecList[9] [3:0] $end
$var reg 5 C RecList_wrAddr [4:0] $end
$var reg 8 H startEndAddr [7:0] $end
$var reg 4 P \RecList[15] [3:0] $end
$var reg 5 T cur_state [4:0] $end
$var reg 4 Y \RecList[13] [3:0] $end
$var reg 4 ] \RecList[5] [3:0] $end
$var reg 4 a \RecList[10] [3:0] $end
$var reg 2 e TileLevel [1:0] $end
$var reg 4 g \RecList[8] [3:0] $end
$var reg 4 k \RecList[2] [3:0] $end
$var reg 4 o \RecList[1] [3:0] $end
$var reg 4 s \RecList[6] [3:0] $end
$var reg 4 w Tile [3:0] $end
$var reg 4 { \RecList[4] [3:0] $end
$var reg 4 !" \RecList[7] [3:0] $end
$var reg 4 %" TileAddr [3:0] $end
$var reg 4 )" endAddr [3:0] $end
$var reg 4 -" RecList_wrData [3:0] $end
$var reg 4 1" \RecList[3] [3:0] $end
$var reg 5 5" next_state [4:0] $end
$var reg 4 :" startAddr [3:0] $end
$var reg 1 >" READY $end
$var reg 1 ?" RecList_wrEn $end
$var reg 1 @" _TRIGGER $end
$var reg 1 A" _WINDOW $end
$var reg 1 B" _GAP $end
$upscope $end
$enddefinitions $end
#0
$dumpvars
b10000 "
b10 '
b0 )
b11 +
b0 /
b0 3
b0 7
b0 ;
b0 ?
b0 C
b110000 H
b0 P
b0 T
b0 Y
b0 ]
b0 a
b10 e
b0 g
b0 k
b0 o
b0 s
b101 w
b0 {
b0 !"
b0 %"
b11 )"
b101 -"
b0 1"
b1 5"
b0 :"
0>"
0?"
0@"
1A"
0B"
$end
#512
b1 T
b10 5"
1@"
#513
b10 T
b11 5"
#514
b10 )
b11111100 H
b11 T
b1111 )"
b100 5"
b1100 :"
#515
b100 T
b0 w
b1100 %"
b0 -"
#516
b11 w
b1101 %"
b11 -"
1?"
#517
b11 /
b1 C
b1100 w
b1110 %"
b1100 -"
0?"
#518
b1111 w
b1111 %"
b1111 -"
b101 5"
#519
b101 T
b101 w
b0 %"
b101 -"
b110 5"
#520
b110 T
b0 w
b1100 %"
b0 -"
1?"
#521
b10 C
b11 w
b1101 %"
b11 -"
0?"
#522
b1100 w
b1110 %"
b1100 -"
1?"
#523
b11 C
b1100 k
b1111 w
b1111 %"
b1111 -"
b111 5"
#524
b100 C
b111 T
b101 w
b0 %"
b101 -"
b1111 1"
b1000 5"
0?"
#525
b0 )
b110000 H
b1000 T
b11 )"
b1001 5"
b0 :"
#526
b1001 T
1?"
#527
b101 C
b110 w
b101 {
b1 %"
b110 -"
#528
b110 C
b110 ]
b1001 w
b10 %"
b1001 -"
#529
b111 C
b1001 s
b1010 w
b11 %"
b1010 -"
b1010 5"
#530
b1000 C
b1010 T
b1 w
b1010 !"
b100 %"
b1 -"
b111 5"
0?"
#531
b111 T
b1000 5"
#532
b1 )
b10110100 H
b1000 T
b1011 )"
b1001 5"
b100 :"
#533
b1001 T
1?"
#534
b1001 C
b1 g
b10 w
b101 %"
b10 -"
#535
b10 ?
b1010 C
b100 w
b110 %"
b100 -"
#536
b1011 C
b100 a
b111 w
b111 %"
b111 -"
#537
b111 ;
b1100 C
b1000 w
b1000 %"
b1000 -"
#538
b1000 3
b1101 C
b1011 w
b1001 %"
b1011 -"
#539
b1110 C
b1011 Y
b1101 w
b1010 %"
b1101 -"
#540
b1101 7
b1111 C
b1110 w
b1011 %"
b1110 -"
b1010 5"
#541
b10000 C
b1110 P
b1010 T
b0 w
b1100 %"
b0 -"
b1011 5"
0?"
#542
b1011 T
#592
b0 )
b0 /
b0 3
b0 7
b0 ;
b0 ?
b0 C
b110000 H
b0 P
b0 T
b0 Y
b0 ]
b0 a
b0 g
b0 k
b0 s
b101 w
b0 {
b0 !"
b0 %"
b11 )"
b101 -"
b0 1"
b1 5"
b0 :"
